…
output = map_dfr(iris_with_missing, replace_missing)

output
```

    ## # A tibble: 150 x 5
    ##    Sepal.Length Sepal.Width Petal.Length Petal.Width Species
    ##           <dbl>       <dbl>        <dbl>       <dbl> <chr>  
    ##  1         5.1          3.5         1.4         0.2  setosa 
    ##  2         4.9          3           1.4         0.2  setosa 
    ##  3         4.7          3.2         1.3         0.2  setosa 
    ##  4         4.6          3.1         1.5         1.19 setosa 
    ##  5         5            3.6         1.4         0.2  setosa 
    ##  6         5.4          3.9         1.7         0.4  setosa 
    ##  7         5.82         3.4         1.4         0.3  setosa 
    ##  8         5            3.4         1.5         0.2  setosa 
    ##  9         4.4          2.9         1.4         0.2  setosa 
    ## 10         4.9          3.1         3.77        0.1  setosa 
    ## # … with 140 more rows
…
##Generating 10000 datasets from the model
sim_results = 
  tibble(beta1 =c(0:6)) %>% 
  mutate(
    output_lists=map(.x= beta1, ~rerun(10000, sim_regression(beta1 =.x))),
    estimate_p.value=map(output_lists, bind_rows)
  ) %>% 
  select(-output_lists) %>% 
  unnest(estimate_p.value)

sim_results
```

    ## # A tibble: 140,000 x 4
    ##    beta1 term        estimate p.value
    ##    <int> <chr>          <dbl>   <dbl>
    ##  1     0 (Intercept)    1.03   0.906 
    ##  2     0 x              5.60   0.624 
    ##  3     0 (Intercept)   -0.263  0.978 
    ##  4     0 x             26.0    0.0182
    ##  5     0 (Intercept)    3.63   0.732 
    ##  6     0 x            -10.4    0.385 
    ##  7     0 (Intercept)   -4.92   0.503 
    ##  8     0 x             -4.31   0.539 
    ##  9     0 (Intercept)   12.9    0.289 
    ## 10     0 x             -1.14   0.943 
    ## # … with 139,990 more rows
…
